<?xml version="1.0" encoding="utf-8"?>
<svg xmlns="http://www.w3.org/2000/svg"
	xmlns:xlink="http://www.w3.org/1999/xlink"
	width="72px" height="88px">
<filter id="filter0" x="-5.45%" y="-5.56%" width="110.91%" height="111.11%" filterUnits="objectBoundingBox">
<feGaussianBlur in="SourceAlpha" result="dsBlurOut" stdDeviation="1.50"/>
<feFlood result="dsFloodOut" flood-color="rgb(0,0,0)"/>
<feComposite in="dsFloodOut" in2="dsBlurOut" result="dsShadow" operator="atop"/>
<feComponentTransfer in="dsShadow" result="dsShadowOpacity">
<feFuncA type="linear" slope="0.30"/>
</feComponentTransfer>
<feOffset in="dsShadowOpacity" dx="0.00" dy="0.00" result="dsOffset"/>
<feComposite in="dsOffset" in2="SourceAlpha" result="dropShadow" operator="out"/>
</filter>
<linearGradient id="linear_PSgrad_0" x1="50%" x2="50%" y1="100%" y2="0%">
    <stop offset="0%" stop-color="rgb(0,0,0)" stop-opacity="1" />
    <stop offset="100%" stop-color="rgb(255,255,255)" stop-opacity="1" />
</linearGradient>

<linearGradient id="linear_PSgrad_1" x1="47.3796%" x2="52.6204%" y1="0%" y2="100%">
    <stop offset="0%" stop-color="rgb(123,85,199)" stop-opacity="1" />
    <stop offset="100%" stop-color="rgb(249,87,87)" stop-opacity="1" />
</linearGradient>

<defs>
<ellipse id="symbol0" cx="36.50" cy="36.00" rx="27.50" ry="27.00"/>
</defs>
<g>
<path opacity="0.30" fill="rgb(0,0,0)" fill-rule="evenodd" d="M 61.46 62.22C 61.46 62.22 61.46 62.22 61.46 62.22 61.46 62.22 36 88 36 88 36 88 10.54 62.22 10.54 62.22 10.54 62.22 10.54 62.22 10.54 62.22 4.03 55.63-0 46.52-0 36.45-0 16.32 16.12-0 36-0 55.88-0 72 16.32 72 36.45 72 46.52 67.97 55.63 61.46 62.22Z"/>
<g>
<use xlink:href="#symbol0" filter="url(#filter0)"/>
<use xlink:href="#symbol0" fill="rgb(255,255,255)"/>
<use opacity="0.05" xlink:href="#symbol0" fill="url(#linear_PSgrad_0)"/>
</g>
<path fill="url(#linear_PSgrad_1)" fill-rule="evenodd" d="M 27.09 38.1C 27.09 38.1 30.01 35.36 30.01 35.36 30.01 35.36 34.1 39.73 34.1 39.73 34.1 39.73 44 26 44 26 44 26 47.24 28.34 47.24 28.34 47.24 28.34 37.35 42.07 37.35 42.07 37.35 42.07 34.51 46.01 34.51 46.01 34.51 46.01 31.19 42.46 31.19 42.46 31.19 42.46 27.09 38.1 27.09 38.1"/>
</g>
</svg>