<?xml version="1.0" encoding="UTF-8" standalone="no"?>
<svg
   xmlns:dc="http://purl.org/dc/elements/1.1/"
   xmlns:cc="http://creativecommons.org/ns#"
   xmlns:rdf="http://www.w3.org/1999/02/22-rdf-syntax-ns#"
   xmlns:svg="http://www.w3.org/2000/svg"
   xmlns="http://www.w3.org/2000/svg"
   xmlns:xlink="http://www.w3.org/1999/xlink"
   xmlns:sodipodi="http://sodipodi.sourceforge.net/DTD/sodipodi-0.dtd"
   xmlns:inkscape="http://www.inkscape.org/namespaces/inkscape"
   width="72px"
   height="88px"
   id="svg2"
   version="1.1"
   inkscape:version="0.91 r13725"
   sodipodi:docname="callout-house-hover.svg">
  <metadata
     id="metadata48">
    <rdf:RDF>
      <cc:Work
         rdf:about="">
        <dc:format>image/svg+xml</dc:format>
        <dc:type
           rdf:resource="http://purl.org/dc/dcmitype/StillImage" />
        <dc:title></dc:title>
      </cc:Work>
    </rdf:RDF>
  </metadata>
  <sodipodi:namedview
     pagecolor="#ffffff"
     bordercolor="#666666"
     borderopacity="1"
     objecttolerance="10"
     gridtolerance="10"
     guidetolerance="10"
     inkscape:pageopacity="0"
     inkscape:pageshadow="2"
     inkscape:window-width="1920"
     inkscape:window-height="1027"
     id="namedview46"
     showgrid="false"
     inkscape:zoom="2.6818182"
     inkscape:cx="36"
     inkscape:cy="44"
     inkscape:window-x="-8"
     inkscape:window-y="-8"
     inkscape:window-maximized="1"
     inkscape:current-layer="svg2" />
  <filter
     id="filter0"
     x="-5.45%"
     y="-5.56%"
     width="110.91%"
     height="111.11%"
     filterUnits="objectBoundingBox">
    <feGaussianBlur
       in="SourceAlpha"
       result="dsBlurOut"
       stdDeviation="1.50"
       id="feGaussianBlur5" />
    <feFlood
       result="dsFloodOut"
       flood-color="rgb(0,0,0)"
       id="feFlood7" />
    <feComposite
       in="dsFloodOut"
       in2="dsBlurOut"
       result="dsShadow"
       operator="atop"
       id="feComposite9" />
    <feComponentTransfer
       in="dsShadow"
       result="dsShadowOpacity"
       id="feComponentTransfer11">
      <feFuncA
         type="linear"
         slope="0.30"
         id="feFuncA13" />
    </feComponentTransfer>
    <feOffset
       in="dsShadowOpacity"
       dx="0.00"
       dy="0.00"
       result="dsOffset"
       id="feOffset15" />
    <feComposite
       in="dsOffset"
       in2="SourceAlpha"
       result="dropShadow"
       operator="out"
       id="feComposite17" />
  </filter>
  <linearGradient
     id="linear_PSgrad_0"
     x1="36.16666"
     x2="36.16666"
     y1="63.580657"
     y2="9.0829511"
     gradientTransform="scale(1.0092168,0.99086739)"
     gradientUnits="userSpaceOnUse">
    <stop
       offset="0%"
       stop-color="rgb(0,0,0)"
       stop-opacity="1"
       id="stop20" />
    <stop
       offset="100%"
       stop-color="rgb(255,255,255)"
       stop-opacity="1"
       id="stop22" />
  </linearGradient>
  <linearGradient
     id="linear_PSgrad_1"
     x1="36.509493"
     x2="37.561839"
     y1="26.090796"
     y2="46.170674"
     gradientTransform="scale(1.0034922,0.99652)"
     gradientUnits="userSpaceOnUse">
    <stop
       offset="0%"
       stop-color="rgb(123,85,199)"
       stop-opacity="1"
       id="stop25" />
    <stop
       offset="100%"
       stop-color="rgb(249,87,87)"
       stop-opacity="1"
       id="stop27" />
  </linearGradient>
  <defs
     id="defs29">
    <ellipse
       id="symbol0"
       cx="36.50"
       cy="36.00"
       rx="27.50"
       ry="27.00" />
  </defs>
  <path
     style="opacity:0.3;fill:#000000;fill-rule:evenodd"
     inkscape:connector-curvature="0"
     id="path34"
     d="m 61.46,62.22 c 0,0 0,0 0,0 C 61.46,62.22 36,88 36,88 36,88 10.54,62.22 10.54,62.22 c 0,0 0,0 0,0 C 4.03,55.63 0,46.52 0,36.45 0,16.32 16.12,0 36,0 55.88,0 72,16.32 72,36.45 72,46.52 67.97,55.63 61.46,62.22 Z" />
  <g
     id="g36"
     style="fill:#1d1d1b;fill-opacity:1">
    <use
       height="100%"
       width="100%"
       y="0"
       x="0"
       style="filter:url(#filter0);fill:#1d1d1b;fill-opacity:1"
       id="use38"
       xlink:href="#symbol0" />
    <use
       height="100%"
       width="100%"
       y="0"
       x="0"
       style="fill:#1d1d1b;fill-opacity:1"
       id="use40"
       xlink:href="#symbol0" />
    <use
       height="100%"
       width="100%"
       y="0"
       x="0"
       style="opacity:0.05;fill:#1d1d1b;fill-opacity:1"
       id="use42"
       xlink:href="#symbol0" />
  </g>
  <path
     inkscape:connector-curvature="0"
     style="fill:url(#linear_PSgrad_1);fill-rule:evenodd"
     id="path44"
     d="m 27.09,38.1 c 0,0 2.92,-2.74 2.92,-2.74 0,0 4.09,4.37 4.09,4.37 0,0 9.9,-13.73 9.9,-13.73 0,0 3.24,2.34 3.24,2.34 0,0 -9.89,13.73 -9.89,13.73 0,0 -2.84,3.94 -2.84,3.94 0,0 -3.32,-3.55 -3.32,-3.55 0,0 -4.1,-4.36 -4.1,-4.36" />
</svg>
