<?xml version="1.0" encoding="UTF-8" standalone="no"?>
<svg
   xmlns:dc="http://purl.org/dc/elements/1.1/"
   xmlns:cc="http://creativecommons.org/ns#"
   xmlns:rdf="http://www.w3.org/1999/02/22-rdf-syntax-ns#"
   xmlns:svg="http://www.w3.org/2000/svg"
   xmlns="http://www.w3.org/2000/svg"
   xmlns:xlink="http://www.w3.org/1999/xlink"
   xmlns:sodipodi="http://sodipodi.sourceforge.net/DTD/sodipodi-0.dtd"
   xmlns:inkscape="http://www.inkscape.org/namespaces/inkscape"
   width="50px"
   height="61px"
   id="svg2"
   version="1.1"
   inkscape:version="0.91 r13725"
   sodipodi:docname="callout-entertainment.svg">
  <metadata
     id="metadata59">
    <rdf:RDF>
      <cc:Work
         rdf:about="">
        <dc:format>image/svg+xml</dc:format>
        <dc:type
           rdf:resource="http://purl.org/dc/dcmitype/StillImage" />
      </cc:Work>
    </rdf:RDF>
  </metadata>
  <sodipodi:namedview
     pagecolor="#ffffff"
     bordercolor="#666666"
     borderopacity="1"
     objecttolerance="10"
     gridtolerance="10"
     guidetolerance="10"
     inkscape:pageopacity="0"
     inkscape:pageshadow="2"
     inkscape:window-width="1633"
     inkscape:window-height="723"
     id="namedview57"
     showgrid="false"
     inkscape:zoom="5.4713836"
     inkscape:cx="18.248058"
     inkscape:cy="27.252089"
     inkscape:window-x="0"
     inkscape:window-y="0"
     inkscape:window-maximized="0"
     inkscape:current-layer="svg2" />
  <filter
     id="filter0"
     x="-7.89%"
     y="-8.11%"
     width="115.79%"
     height="116.22%"
     filterUnits="objectBoundingBox">
    <feGaussianBlur
       in="SourceAlpha"
       result="dsBlurOut"
       stdDeviation="1.50"
       id="feGaussianBlur5" />
    <feFlood
       result="dsFloodOut"
       flood-color="rgb(0,0,0)"
       id="feFlood7" />
    <feComposite
       in="dsFloodOut"
       in2="dsBlurOut"
       result="dsShadow"
       operator="atop"
       id="feComposite9" />
    <feComponentTransfer
       in="dsShadow"
       result="dsShadowOpacity"
       id="feComponentTransfer11">
      <feFuncA
         type="linear"
         slope="0.30"
         id="feFuncA13" />
    </feComponentTransfer>
    <feOffset
       in="dsShadowOpacity"
       dx="0.00"
       dy="0.00"
       result="dsOffset"
       id="feOffset15" />
    <feComposite
       in="dsOffset"
       in2="SourceAlpha"
       result="dropShadow"
       operator="out"
       id="feComposite17" />
  </filter>
  <linearGradient
     id="linear_PSgrad_0"
     x1="50%"
     x2="50%"
     y1="100%"
     y2="0%">
    <stop
       offset="0%"
       stop-color="rgb(0,0,0)"
       stop-opacity="1"
       id="stop20" />
    <stop
       offset="100%"
       stop-color="rgb(255,255,255)"
       stop-opacity="1"
       id="stop22" />
  </linearGradient>
  <defs
     id="defs24">
    <circle
       id="symbol0"
       cx="25.00"
       cy="25.00"
       r="18.00" />
  </defs>
  <path
     opacity="0.30"
     fill="rgb(0,0,0)"
     fill-rule="evenodd"
     d="M 42.68 43.13C 42.68 43.13 25 61 25 61 25 61 7.32 43.13 7.32 43.13 7.32 43.13 7.32 43.13 7.32 43.13 2.8 38.56-0 32.24-0 25.27-0 11.31 11.19-0 25-0 38.81-0 50 11.31 50 25.27 50 32.24 47.2 38.56 42.68 43.13Z"
     id="path27" />
  <g
     id="g29">
    <use
       xlink:href="#symbol0"
       filter="url(#filter0)"
       id="use31" />
    <use
       xlink:href="#symbol0"
       fill="rgb(255,255,255)"
       id="use33" />
    <use
       opacity="0.05"
       xlink:href="#symbol0"
       fill="url(#linear_PSgrad_0)"
       id="use35" />
  </g>
  <g
     id="g37">
    <path
       fill="rgb(29,29,27)"
       fill-rule="evenodd"
       d="M 22.71 30C 24.53 30 26 28.54 26 26.75 26 26.75 26 19 26 19 26 19 18 19 18 19 18 19 18 26.75 18 26.75 18 28.54 19.47 30 21.29 30 21.29 30 22.71 30 22.71 30M 22.71 31C 22.71 31 21.29 31 21.29 31 18.92 31 17 29.1 17 26.75 17 26.75 17 18 17 18 17 18 27 18 27 18 27 18 27 26.75 27 26.75 27 29.1 25.08 31 22.71 31 22.71 31 22.71 31 22.71 31Z"
       id="path39" />
    <path
       fill="rgb(29,29,27)"
       fill-rule="evenodd"
       d="M 19 22.5C 19 22.5 18 22.5 18 22.5 18 21.67 18.67 21 19.5 21 20.33 21 21 21.67 21 22.5 21 22.5 20 22.5 20 22.5 20 22.22 19.78 22 19.5 22 19.22 22 19 22.22 19 22.5"
       id="path41" />
    <path
       fill="rgb(29,29,27)"
       fill-rule="evenodd"
       d="M 24 22.5C 24 22.5 23 22.5 23 22.5 23 21.67 23.67 21 24.5 21 25.33 21 26 21.67 26 22.5 26 22.5 25 22.5 25 22.5 25 22.22 24.78 22 24.5 22 24.22 22 24 22.22 24 22.5"
       id="path43" />
    <path
       fill="rgb(29,29,27)"
       fill-rule="evenodd"
       d="M 19 25C 19 25 20 25 20 25 20 25.55 20.9 26 22 26 23.1 26 24 25.55 24 25 24 25 25 25 25 25 25 26.16 23.74 27 22 27 20.26 27 19 26.16 19 25"
       id="path45" />
  </g>
  <g
     id="g47">
    <path
       fill="rgb(29,29,27)"
       fill-rule="evenodd"
       d="M 26.41 23C 26.41 23 26.41 22 26.41 22 29.3 22 33 22 33 22 33 22 33 23 33 23 33 23 26.41 23 26.41 23M 32 22C 32 22 33 22 33 22 33 22 33 30.75 33 30.75 33 33.1 31.08 35 28.71 35 28.71 35 27.29 35 27.29 35 24.92 35 23 33.1 23 30.75 23 30.75 24 30.75 24 30.75 24 32.54 25.47 34 27.29 34 27.29 34 28.71 34 28.71 34 30.53 34 32 32.54 32 30.75 32 30.75 32 22 32 22M 33 23C 33 23 33 22 33 22 33 22 33 22 33 22 33 22 33 23 33 23 33 23 33 23 33 23ZM 33 22C 33 22 32 22 32 22 32 22 33 22 33 22 33 22 33 22 33 22 33 22 33 22 33 22Z"
       id="path49" />
    <path
       fill="rgb(29,29,27)"
       fill-rule="evenodd"
       d="M 25 26.5C 25 26.5 24 26.5 24 26.5 24 25.67 24.67 25 25.5 25 26.33 25 27 25.67 27 26.5 27 26.5 26 26.5 26 26.5 26 26.22 25.78 26 25.5 26 25.22 26 25 26.22 25 26.5"
       id="path51" />
    <path
       fill="rgb(29,29,27)"
       fill-rule="evenodd"
       d="M 31.01 25C 31.01 25 32.01 25.01 32.01 25.01 32 25.84 31.32 26.51 30.49 26.5 29.66 26.49 29 25.81 29.01 24.99 29.01 24.99 30.01 24.99 30.01 24.99 30 25.27 30.23 25.5 30.5 25.5 30.78 25.5 31 25.28 31.01 25"
       id="path53" />
    <path
       fill="rgb(29,29,27)"
       fill-rule="evenodd"
       d="M 31 31C 31 31 30 31 30 31 30 30.45 29.1 30 28 30 26.9 30 26 30.45 26 31 26 31 25 31 25 31 25 29.84 26.26 29 28 29 29.74 29 31 29.84 31 31"
       id="path55" />
  </g>
</svg>
