<svg xmlns="http://www.w3.org/2000/svg" xmlns:xlink="http://www.w3.org/1999/xlink" preserveAspectRatio="xMidYMid" width="7" height="9" viewBox="0 0 7 9">
  <defs>
    <style>

      .cls-2 {
        fill: #bc578f;
      }
    </style>
  </defs>
  <path d="M3.651,4.500 C3.651,2.573 5.043,0.931 7.000,0.288 C6.432,0.102 5.817,-0.001 5.174,-0.001 C2.317,-0.001 -0.000,2.014 -0.000,4.500 C-0.000,6.985 2.317,8.999 5.174,8.999 C5.817,8.999 6.432,8.897 7.000,8.711 C5.043,8.069 3.651,6.426 3.651,4.500 Z" id="path-1" class="cls-2" fill-rule="evenodd"/>
</svg>
